<?xml version="1.0" encoding="UTF-8" standalone="no"?>
<!-- 
	Created with Inkscape (http://www.inkscape.org/).

	This document is licensed under the GFDL license. 
	
	Copyright 2005-2006
		Swantje Hess <http://red20.deviantart.com>
		Jannis Pohlmann <http://sten-net.de>
-->

<svg
   sodipodi:version="0.32"
   inkscape:version="1.2.2 (b0a8486541, 2022-12-01)"
   width="40mm"
   height="70mm"
   viewBox="0 0 40 70"
   sodipodi:docname="Angry_Penguin.svg"
   version="1.1"
   id="svg3428"
   xml:space="preserve"
   xmlns:inkscape="http://www.inkscape.org/namespaces/inkscape"
   xmlns:sodipodi="http://sodipodi.sourceforge.net/DTD/sodipodi-0.dtd"
   xmlns:xlink="http://www.w3.org/1999/xlink"
   xmlns="http://www.w3.org/2000/svg"
   xmlns:svg="http://www.w3.org/2000/svg"
   xmlns:rdf="http://www.w3.org/1999/02/22-rdf-syntax-ns#"
   xmlns:cc="http://creativecommons.org/ns#"
   xmlns:dc="http://purl.org/dc/elements/1.1/"><defs
     id="defs7225"><linearGradient
       id="linearGradient1552"><stop
         style="stop-color:#c1c4ff;stop-opacity:1.0000000;"
         offset="0.0000000"
         id="stop1553" /><stop
         style="stop-color:#fff;stop-opacity:1;"
         offset="1"
         id="stop1554" /></linearGradient><linearGradient
       inkscape:collect="always"
       xlink:href="#linearGradient1552"
       id="linearGradient1555"
       x1="-0.28888890"
       y1="0.52343750"
       x2="0.40000001"
       y2="0.51562500" /><linearGradient
       id="linearGradient6597"><stop
         style="stop-color:#787878;stop-opacity:1.0000000;"
         offset="0.0000000"
         id="stop6598" /><stop
         style="stop-color:#dcdcdc;stop-opacity:1.0000000;"
         offset="1.0000000"
         id="stop6599" /></linearGradient></defs><sodipodi:namedview
     id="base"
     pagecolor="#ffffff"
     bordercolor="#666666"
     borderopacity="1.0"
     inkscape:pageopacity="0.0"
     inkscape:pageshadow="2"
     inkscape:zoom="13.893068"
     inkscape:cx="115.92112"
     inkscape:cy="228.20733"
     inkscape:window-width="1916"
     inkscape:window-height="640"
     inkscape:window-x="0"
     inkscape:window-y="0"
     inkscape:showpageshadow="2"
     inkscape:pagecheckerboard="0"
     inkscape:deskcolor="#d1d1d1"
     showgrid="false"
     inkscape:window-maximized="1"
     inkscape:current-layer="svg3428"
     inkscape:document-units="mm" /><metadata
     id="metadata7226"><rdf:RDF><cc:Work
         rdf:about=""><dc:format>image/svg+xml</dc:format><dc:type
         rdf:resource="http://purl.org/dc/dcmitype/StillImage" /></cc:Work></rdf:RDF></metadata>
  <path
     id="path13371-engrave"
     style="fill:#000000;stroke:none;stroke-width:0.1"
     d="m 21.572548,59.072568 c 0.0547,0.85126 0.90723,1.25698 1.56028,0.22484 0.80039,-1.22285 1.54095,-2.02042 2.58066,-3.12177 1.00339,-0.79876 1.68958,-1.01158 2.65118,-1.05968 3.73774,-0.18698 6.84028,0.2936 10.26042,0.31258 1.57333,-0.0225 1.84603,-1.30184 0,-3.00721 -1.05465,-0.79889 -1.94148,-1.59779 -2.78635,-2.46059 -1.37351,-2.03053 -1.71912,-3.95454 -1.91787,-5.89986 -0.29798,-2.76562 -0.59594,-5.61645 -0.70511,-8.10515 -0.11282,-2.22438 -0.12074,-4.38485 -0.33844,-6.67314 -0.46859,-4.15681 -1.00012,-5.86388 -1.72045,-8.76387 -0.62998,-3.05885 -1.71276,-6.025793 -3.03193,-8.835468 -1.33101,-2.8348831 -1.8586,-5.2266101 -2.86271,-7.4607461 -1.22665,-2.729296 -3.29351,-4.00014299 -5.57613,-4.15527199 -0.76935,-0.05228 -1.26548,0.02138 -1.8332,0.122317 -5.94971,1.05778899 -6.16172,3.03214099 -9.4599097,4.49267199 -2.09898,0.929486 -4.82388,1.925141 -6.75756,2.499182 -0.95653,0.29652 -1.41175,1.619869 0,1.80538 0.83098,0.07196 1.41073,0.10466 1.8552,0.03925 0.76655,0.08504 0.85673,-0.02616 1.27544,0.274732 1.57176,0.8241951 2.46715,1.3540341 4.17418,2.7276951 1.1466097,0.928854 2.6646597,2.957119 2.7441297,5.553508 0.0687,2.24412 -0.11959,3.42623 -2.2416797,5.1414 -1.43329,1.15846 -3.65178,1.72267 -4.8892,1.07931 -0.51927,-0.26998 -0.95336,-0.62796 -0.92759,-1.21667 2.60241,-0.40556 1.94179,-5.31598 -1.52667,-4.29759 -3.29509,0.96748 -1.73925,5.75629 -1.27544,7.10378 1.59752,2.91739 4.04534,3.57805 6.64776,4.16022 1.85518,0.1897 3.8566597,0.0129 4.4688497,-0.38603 0.0807,4.40321 -0.23711,8.81093 -0.20637,13.25517 0.0201,2.90453 0.52332,5.25342 1.92882,7.01468 -1.4055,0.4555 -2.54186,0.86545 -3.7679297,1.3665 -1.54007,0.7288 -1.01675,1.59425 0.0897,1.6398 0.2990397,0 0.5980797,0 0.8971297,0 0.39944,0.006 0.76023,-0.0909 0.44856,0.68324 -0.40769,0.91078 0.0494,1.13858 0.85227,1.0932 0.42071,-0.17775 0.66847,-0.0823 0.70486,0.26678 0.28209,0.77193 1.00616,0.84138 1.8071,0.46202 1.06592,-0.79161 2.30479,-1.23198 3.54365,-1.73089 0.29693,0.19518 0.80525,0.25378 1.2367,0.33189 -0.75618,0.96729 -1.72375,1.58334 -2.6721,2.2189 -0.84325,0.70051 -0.43743,1.59616 0.98684,1.4576 0.31399,-0.0304 0.62798,-0.0607 0.94198,-0.0911 0.39506,-0.039 0.57875,-0.0584 0.49342,0.40995 -0.21758,1.26853 0.14132,1.99069 1.48026,1.22984 0.44208,-0.34252 0.84792,-0.33454 0.86724,0.2986 z"
     sodipodi:nodetypes="cccscccccccssssccccccccccccccccccccccccccccccc" />
<path
     id="path27215-cut"
     style="fill:none;fill-opacity:1;stroke:#ff0000;stroke-width:0.1"
     d="m 37.558402,57.541327 c 0.14596,0.0024 0.919627,-2.113608 1.066686,-2.112808 1.57333,-0.0225 1.84603,-1.30184 0,-3.00721 -1.05465,-0.79889 -1.94148,-1.59779 -2.78635,-2.46059 -1.37351,-2.03053 -1.71912,-3.95454 -1.91787,-5.89986 -0.29798,-2.76562 -0.59594,-5.61645 -0.70511,-8.10515 -0.11282,-2.22438 -0.12074,-4.38485 -0.33844,-6.67314 -0.46859,-4.15681 -1.00012,-5.86388 -1.72045,-8.76387 -0.62998,-3.05885 -1.71276,-6.025793 -3.03193,-8.835468 -1.33101,-2.8348831 -1.8586,-5.2266101 -2.86271,-7.4607461 -1.22665,-2.729296 -3.29351,-4.00014299 -5.57613,-4.15527199 -0.76935,-0.05228 -1.26548,0.02138 -1.8332,0.122317 -5.94971,1.05778899 -6.16172,3.03214099 -9.4599097,4.49267199 -2.09898,0.929486 -4.82388,1.925141 -6.75756,2.499182 -0.95653,0.29652 -1.41175,1.619869 0,1.80538 0.83098,0.07196 1.41073,0.10466 1.8552,0.03925 0.76655,0.08504 0.85673,-0.02616 1.27544,0.274732 1.57176,0.8241951 2.46715,1.3540341 4.17418,2.7276951 1.1466097,0.928854 2.6646597,2.957119 2.7441297,5.553508 0.0687,2.24412 -0.11959,3.42623 -2.2416797,5.1414 -1.43329,1.15846 -3.65178,1.72267 -4.8892,1.07931 -0.51927,-0.26998 -0.95336,-0.62796 -0.92759,-1.21667 2.60241,-0.40556 1.94179,-5.31598 -1.52667,-4.29759 -3.29509,0.96748 -1.73925,5.75629 -1.27544,7.10378 1.59752,2.91739 4.04534,3.57805 6.64776,4.16022 1.85518,0.1897 3.8566597,0.0129 4.4688497,-0.38603 0.0807,4.40321 -0.23711,8.81093 -0.20637,13.25517 0.0201,2.90453 0.52332,5.25342 1.92882,7.01468 -1.4055,0.4555 -2.54186,0.86545 -3.7679297,1.3665 -1.54007,0.7288 -1.01675,1.59425 0.0897,1.6398 h 0.8971297 c 0.39944,0.006 0.76023,-0.0909 0.44856,0.68324 -0.40769,0.91078 0.0494,1.13858 0.85227,1.0932 0.42071,-0.17775 0.66847,-0.0823 0.70486,0.26678 0.28209,0.77193 1.00616,0.84138 1.8071,0.46202 1.06592,-0.79161 2.30479,-1.23198 3.54365,-1.73089 0.29693,0.19518 0.80525,0.25378 1.2367,0.33189 -0.75618,0.96729 -1.72375,1.58334 -2.6721,2.2189 -0.84325,0.70051 -0.43743,1.59616 0.98684,1.4576 0.31399,-0.0304 0.62798,-0.0607 0.94198,-0.0911 0.39506,-0.039 0.57875,-0.0584 0.49342,0.40995 -0.21758,1.26853 0.14132,1.99069 1.48026,1.22984 0.44208,-0.34252 0.84792,-0.33454 0.86724,0.2986 l 10e-6,1.9e-5 c 0.0547,0.85126 0.90723,1.25698 1.56028,0.22484 0.80039,-1.22285 1.54095,-2.02042 2.58066,-3.12177 0.137175,-0.1092 0.268421,-0.207448 0.395253,-0.295821 0.800904,-0.55805 -1.143402,1.492826 -0.313264,1.451302 l -0.260528,0.576612 v 2 h 2.25 v 3.95 h 7.5 v -3.95 h 2.25 v -2 z"
     sodipodi:nodetypes="ccccccccssccscccccccscccccccccccccccccccccssccscccccccccc" />
<path
     style="fill:#888888;fill-opacity:0.75;fill-rule:evenodd;stroke:#000000;stroke-width:0.102114pt;stroke-linecap:butt;stroke-linejoin:miter;stroke-opacity:1"
     d="m 14.525708,17.131598 c -3.09454,0.27839 -1.45803,4.8994 -1.75356,7.96065 -0.48778,5.05272 -0.26922,10.56064 -0.42604,15.08336 -0.18701,5.39318 0.18535,9.98574 4.75837,10.3698 2.64753,0.76814 5.25375,1.45717 6.29218,-1.04745 2.39422,-5.77468 -3.06013,-12.11557 -4.43547,-18.53996 -1.47849,-4.6088 -0.53045,-14.17771 -4.43548,-13.8264 z"
     id="path930"
     sodipodi:nodetypes="csscscs" /><path
     style="fill:#c8c8c8;fill-opacity:1;fill-rule:evenodd;stroke:none;stroke-width:0.102114pt;stroke-linecap:butt;stroke-linejoin:miter;stroke-opacity:1"
     d="m 20.381578,17.694068 c -0.59928,0.10954 -0.0541,8.33739 1.89641,15.33171 1.94502,6.97457 4.49787,11.23338 6.92915,13.99852 0.58351,0.46909 3.71987,2.27137 2.8446,-2.37012 -1.65327,-4.76492 -2.2854,-7.18442 -3.28223,-12.14686 -0.99682,-4.96244 -0.97251,-14.46761 -1.60465,-14.73919 -0.51056,0.0741 0.58702,12.6806 1.09408,14.88732 0.51057,2.22199 1.60464,7.33256 3.28223,11.77653 1.04546,4.3946 -1.93381,2.64852 -2.84459,1.3332 -3.90543,-5.64003 -5.22865,-10.36155 -5.83509,-12.7394 -2.86983,-11.25273 -1.87208,-15.44281 -2.47991,-15.33171 z"
     id="path1557"
     sodipodi:nodetypes="czcczczcssz" /><path
     style="fill:#ffffff;fill-opacity:1;fill-rule:evenodd;stroke:none;stroke-width:0.102114pt;stroke-linecap:butt;stroke-linejoin:miter;stroke-opacity:1"
     d="m 14.326628,6.0656629 c 0.94172,-0.405201 1.27748,-0.506119 1.9704,-0.740662 -0.22361,2.014205 3.39634,1.246331 1.93553,-0.55712 0.68076,-0.19751 1.41707,-0.425655 2.00315,-0.553875 -0.0608,0.382676 -1.19133,2.431842 -2.18816,2.740452 -0.99682,0.308609 -3.40486,-0.629564 -3.72092,-0.888795 z"
     id="path2180"
     sodipodi:nodetypes="cccczc" /><path
     style="fill:#5a5a5a;fill-opacity:1;fill-rule:evenodd;stroke:none;stroke-width:0.102114pt;stroke-linecap:butt;stroke-linejoin:miter;stroke-opacity:1"
     d="m 14.246368,5.0810829 c -0.7115,0.197831 -0.60986,-0.09462 -0.15246,-0.258041 2.87146,-1.298806 3.6338,-1.436427 5.26011,-1.806286 0.62681,-0.12042 0.66916,0.50748 -0.0254,0.412865 -0.44893,-0.06881 -3.10863,0.765521 -5.08224,1.651462 z"
     id="path2181"
     sodipodi:nodetypes="ccccc" /><path
     style="fill:#999999;fill-opacity:1;fill-rule:evenodd;stroke:none;stroke-width:0.0255286;stroke-linecap:butt;stroke-linejoin:miter;stroke-miterlimit:4;stroke-opacity:1"
     d="m 2.0584483,7.7606789 c -0.35745,0.0065 -1.4617,0.59631 0.11489,0.602792 4.60848,-0.20093 6.76911,-0.01296 9.0382397,0.408343 2.26914,0.421306 2.52127,1.3481791 1.83829,0.07778 -0.91914,-1.192621 -1.18722,-3.00748 -2.79573,-3.305635 -0.8553097,-0.07778 -1.2510497,-0.330563 -2.4510397,0.15556 -1.9468,0.693534 -2.76382,1.250956 -5.74465,2.06116 z"
     id="path3425"
     sodipodi:nodetypes="cczcccc" /><path
     style="fill:#000000;fill-opacity:1;fill-rule:evenodd;stroke:#000000;stroke-width:0.0255286;stroke-linecap:butt;stroke-linejoin:miter;stroke-miterlimit:4;stroke-opacity:1"
     d="m 6.1562983,7.4884499 c -0.65107,0.142596 -0.71066,-0.515084 -0.21065,-0.622237 0.48167,-0.10322 0.91915,-0.226857 1.35957,-0.272229 0.45938,-0.04732 0.44043,0.3176 0.24894,0.466677 -0.19149,0.149078 -0.76509,0.289198 -1.39786,0.427789 z"
     id="path4668"
     sodipodi:nodetypes="czzzz" /><path
     style="fill:#999999;fill-opacity:1;fill-rule:evenodd;stroke:none;stroke-width:0.0127643;stroke-linecap:butt;stroke-linejoin:miter;stroke-miterlimit:4;stroke-opacity:1"
     d="m 5.6729783,9.1044489 c 2.02652,-0.142079 5.8719597,0.462905 6.8919897,0.866228 0.62285,0.2979071 0.67701,0.2933251 -0.0135,0.7149801 -0.79888,0.449154 -1.54359,0.527068 -2.7622097,1.374962 -1.31341,-1.297049 -2.38309,-1.906614 -4.11624,-2.9561701 z"
     id="path7153"
     sodipodi:nodetypes="ccccc" /><path
     style="fill:#999999;fill-opacity:1;fill-rule:evenodd;stroke:none;stroke-width:0.0127643;stroke-linecap:butt;stroke-linejoin:miter;stroke-miterlimit:4;stroke-opacity:1"
     d="m 13.966468,49.982848 c -1.35338,0.26562 -2.74119,0.79934 -3.9912497,1.32141 -0.46055,0.2272 -0.45044,0.65256 0.3057897,0.57668 0.47155,-0.0233 0.65612,0.035 1.03584,0.0233 0.75486,0.0669 0.74062,0.39017 0.70342,0.7368 -0.0129,0.49929 -0.63412,1.23172 0.34024,0.96167 0.48413,-0.17426 0.80757,0.0828 0.91291,0.36314 0.24813,0.75401 0.59957,0.64543 1.15763,0.4436 1.41912,-0.96902 2.0806,-1.09875 3.01759,-1.50824 -1.97574,-0.99611 -2.42475,-1.57258 -3.48217,-2.91838 z"
     id="path10260"
     sodipodi:nodetypes="cccccccccc" /><path
     style="fill:#999999;fill-opacity:1;fill-rule:evenodd;stroke:none;stroke-width:0.0127643;stroke-linecap:butt;stroke-linejoin:miter;stroke-miterlimit:4;stroke-opacity:1"
     d="m 21.378548,53.217728 c -1.57904,0.8605 -2.33963,1.75877 -3.88147,2.77038 -0.65724,0.29802 -0.89286,0.78494 0,0.6674 0.4671,-0.0672 1.03341,-0.008 1.72372,-0.063 0.3679,-0.0168 0.64898,0.042 0.58284,0.46593 -0.062,0.38197 -0.0868,0.71358 -0.0744,1.02 -0.0331,0.54148 0.35549,0.46593 0.60764,0.31481 0.29762,-0.20987 0.62005,-0.35679 0.83086,-0.41555 0.22321,-0.0798 0.39683,-0.0966 0.48363,0.063 0.26042,0.28963 0.35963,0.61704 0.40923,0.94445 0.11161,0.47432 0.31003,0.38197 0.55804,0.10074 1.07474,-1.66223 2.18669,-2.77037 3.73266,-4.2563 -1.37649,-1.32642 -3.00101,-1.29284 -3.68305,-1.30964 -0.32243,-0.0504 -0.55805,0.0126 -1.2897,-0.30222 z"
     id="path12128"
     sodipodi:nodetypes="cccccccccccccc" /><ellipse
     style="fill:#ffffff;fill-opacity:1;fill-rule:evenodd;stroke:none;stroke-width:0.102114pt;stroke-linecap:butt;stroke-linejoin:miter;stroke-opacity:1"
     id="path2803"
     cx="17.295727"
     cy="5.4552341"
     rx="0.20328948"
     ry="0.21933475" /></svg>
