<?xml version="1.0" encoding="UTF-8" standalone="no"?>
<svg
   viewBox="0 0 60 70"
   version="1.1"
   height="70mm"
   width="60mm"
   id="svg70094"
   sodipodi:docname="Ninja-japan-fighter-martial-arts-153355.svg"
   inkscape:version="1.2.2 (b0a8486541, 2022-12-01)"
   xml:space="preserve"
   xmlns:inkscape="http://www.inkscape.org/namespaces/inkscape"
   xmlns:sodipodi="http://sodipodi.sourceforge.net/DTD/sodipodi-0.dtd"
   xmlns="http://www.w3.org/2000/svg"
   xmlns:svg="http://www.w3.org/2000/svg"><defs
     id="defs70098" /><sodipodi:namedview
     id="namedview70096"
     pagecolor="#ffffff"
     bordercolor="#666666"
     borderopacity="1.0"
     inkscape:showpageshadow="2"
     inkscape:pageopacity="0.0"
     inkscape:pagecheckerboard="0"
     inkscape:deskcolor="#d1d1d1"
     showgrid="false"
     inkscape:zoom="1.4992168"
     inkscape:cx="64.700448"
     inkscape:cy="219.78142"
     inkscape:window-width="1916"
     inkscape:window-height="874"
     inkscape:window-x="0"
     inkscape:window-y="0"
     inkscape:window-maximized="1"
     inkscape:current-layer="svg70094"
     inkscape:document-units="mm" /><g
     transform="matrix(0.0551994,0,0,0.07299395,14.413569,-93.550148)"
     id="g70092"
     style="stroke-width:1.57539475;stroke-dasharray:none" /><path
     id="path74864"
     style="fill:none;stroke:#ff0000;stroke-width:0.1"
     d="m 16.345548,25.253031 c 0.308057,-0.255216 0.622788,-0.660062 0.77652,-1.087639 l 0.824263,-0.738173 c 1.512923,-1.354906 1.842458,-2.227388 2.068252,-2.849049 0.251632,0.736181 0.340436,1.716446 0.343271,2.739558 -0.03879,0.02056 -0.08711,0.04461 -0.143479,0.07186 -0.417489,0.201821 -1.276909,0.579331 -1.981839,1.016389 -0.182836,0.11336 -0.135151,0.362795 -0.292617,0.444964 -0.257386,0.134302 -0.531293,0.244669 -0.597245,0.311984 z m 3.991607,-1.9145 c -0.0026,0.07189 -0.0057,0.144813 -0.0086,0.216697 z m -0.220798,3.216296 c -0.0063,0.06904 -0.01109,0.125017 -0.01725,0.191609 M 26.441491,4.2176129 C 24.437109,3.1737264 23.066908,5.0220427 22.84538,5.091584 22.606074,5.1667021 22.419052,4.438894 22.640787,3.504316 22.858464,2.5868477 26.195625,1.5521147 26.48922,3.0546513 c 0.172565,0.8831465 0.362107,1.3764032 -0.04773,1.1629616 z m 6.668284,56.1466351 -16.248278,0.04772 -8.9797186,-0.17423 0.064837,-0.340945 c 0.6701494,0 0.9613583,-1.519909 0.8676656,-2.397391 -0.5820948,-0.301301 -0.9347572,-0.545656 -1.2212868,-1.19985 l 0.4329703,-2.787449 c 1.4923131,-0.366984 1.4780683,-2.077933 2.5236475,-3.337166 1.824923,-2.197834 0.969814,-4.124188 1.931979,-7.351864 0.349718,-0.243442 0.398151,0.162273 0.543369,0.07072 0.194571,-0.122674 0.293187,-0.924738 0.47092,-0.953483 3.287081,-0.531564 6.382816,-2.296324 9.087201,-3.784277 0.51329,-0.282421 1.170769,0.03968 1.726707,-0.0251 2.323262,-0.02265 3.728787,3.7454 6.032259,3.909738 2.075834,0.148105 0.497478,0.102403 0.867666,1.564808 0.491709,-0.166842 1.466396,-0.556783 0.88664,1.35495 -0.579562,1.911091 -0.699812,2.89348 -0.531294,6.154303 0.0313,0.60563 0.783903,1.48804 0.867665,2.084889 0.105625,0.752634 0.132787,0.100017 -0.198373,2.112613 -0.04018,0.244194 -0.287899,0.961528 -1.133356,1.572217 -0.11171,0.472694 -0.241143,0.726582 -0.488555,1.758869 0.412867,0.79559 1.43482,1.123259 2.706782,1.243438 z m 5.21283,-0.491081 c 0.36508,-0.0012 0.717311,0.005 1.049719,0.02365 0.411249,-0.604988 0.918984,-1.015367 0.393296,-1.482689 -1.718455,-0.372189 -5.311319,-0.64553 -5.196765,-3.383204 0,0 0.233513,-1.300541 0.347842,-1.726373 0.362608,-1.350549 1.980959,-3.575236 1.931979,-5.006932 -0.125129,-3.657545 0.758517,-5.878991 0.156974,-9.331817 -0.126288,-0.724888 -0.619605,-1.256167 -1.024639,-1.772388 -2.063715,-2.630198 -5.815848,-4.279708 -7.132798,-7.646116 -0.338171,-0.864409 -0.581522,-0.728224 -0.395021,-1.669737 0.244551,-1.234517 0.518233,0.15555 0.815917,-1.058412 0.629117,-2.565504 3.184593,-7.805294 3.21709,-10.85785 0.01744,-1.638386 -0.198152,-2.494306 -0.90734,-3.873234 -0.841568,-1.107822 -1.984307,-0.822168 -3.025618,-1.17475 C 28.11222,10.763988 27.824496,10.506801 27.345755,10.229 27.125752,10.014187 27.250716,9.1236603 27.188781,8.7713988 27.122478,8.3943267 27.318906,8.0110427 27.32678,7.6240288 27.347215,6.6196394 27.262693,5.6030161 27.090457,4.6244373 26.896755,3.5238784 26.710026,2.3533182 26.202092,1.4446311 25.892716,0.89118366 25.459011,0.39066415 24.960105,0.1946097 24.584295,0.04696484 24.174338,-0.03135767 23.766418,-0.02437215 h -1e-6 c -0.524467,0.0090147 -1.045156,0.1580392 -1.486933,0.4790301 -0.559811,0.40672228 -0.945311,1.22953195 -1.143663,2.03242165 -0.259169,1.0490763 -0.389414,2.3754348 0.0207,3.3121005 0.942681,2.1530003 0.62925,3.0783811 1.464509,3.5037096 0.625809,0.3186697 0.87643,1.6179403 0.200098,2.0483923 -1.001582,0.493965 -1.894487,0.948469 -2.603465,1.67362 -0.114074,0.116681 -0.25392,-0.02472 -0.614857,0.192938 -2.318171,1.397885 -2.588319,3.516483 -3.586729,5.056466 -0.462289,0.258282 -0.340313,0.765962 -0.892917,1.044011 -0.155016,0.07799 -0.894545,0.163032 -1.246656,0.210835 L 6.8830411,0.90369483 5.3847715,0.59085736 h -6e-7 l 6.9204481,19.23485464 -0.141037,0.05646 c -1.43215,0.310319 -3.7479257,0.601353 -5.9625096,0.164842 -0.2012515,-0.03736 -0.4505088,0.389693 -0.5157694,0.410591 -0.304343,0.0974 -0.318399,0.0088 -0.4329703,-0.20758 -0.737523,-1.08901 -2.0808429,-1.029214 -2.9997424,-1.37776 -0.2314378,-0.08779 -0.3901273,-0.119571 -0.5071445,-0.118615 -0.2574378,0.0021 -0.3156975,0.163528 -0.5209443,0.241792 -0.54749361,0.208763 -0.98053235,1.42747 -0.70896731,1.437069 0.60999921,0.02155 0.53890951,-0.195544 1.10053801,-0.03422 0.227596,0.0654 0.9014228,0.904395 1.4420844,1.015076 -0.2051823,0.166207 -0.1403064,0.207412 -0.374321,0.38778 -0.2158451,-0.153426 -0.9370976,0.04652 -1.0919131,0.533769 0.1698541,0.285552 0.7271097,0.264668 1.1177878,0.453927 0.6923981,0.335444 1.4002708,0.0352 1.6991066,-0.501833 0.2765158,0.12909 0.5695363,-0.257129 0.8521407,-0.15739 0.1750069,0.06176 0.3235082,0.418182 0.5002446,0.476738 2.0348458,0.674384 4.2023604,0.864307 6.2099328,1.676584 0.300746,0.121681 0.788602,0.224398 1.340592,0.300925 l 0.162765,0.07698 c -0.329751,0.503001 -0.516361,1.040602 -0.441508,1.530683 0.119336,0.78132 0.997143,0.619471 1.508498,0.461869 0.567535,1.287256 0.54638,1.336753 0.558537,1.71576 0.271043,0.210113 0.607916,0.237237 0.971245,0.124608 l 0.03736,0.04335 c 0.09199,0.250055 -0.08919,0.582396 0,0.834218 0.08708,0.245844 0.268232,0.504644 0.473137,0.521382 0.436645,0.03567 0.843861,-0.03914 1.069271,-0.534937 0.163086,-0.358721 0.07985,-0.850839 -0.112683,-1.183056 -0.103688,-0.178909 -0.281399,-0.228055 -0.412456,-0.333262 0.233073,-0.202653 0.440742,-0.423138 0.638099,-0.666836 l 2e-6,0 c -0.0033,-0.0044 0.272746,-0.05367 0.638565,-0.120586 0.141855,-0.02594 0.11599,0.203529 0.27379,0.173886 0.449132,-0.08439 1.019094,-0.32202 1.298035,-0.451248 0.08001,-0.03707 0.136083,-0.06521 0.158484,-0.07826 -0.123272,1.145705 -0.228564,1.943281 -0.160283,1.943281 l 0.748642,0.782408 -0.205273,0.314779 -1.040164,0.768721 c -1.478564,0.636529 -4.881744,2.265447 -7.151772,4.65108 -0.814986,0.856503 -3.281488,1.903879 -3.8260086,3.077154 -1.1720792,2.52546 -1.41495,5.310449 -2.207976,8.081796 -1.0138667,2.623818 0.6741685,3.428168 0.1190237,7.037076 l -1.1436626,2.527416 c 0,0 -1.1728398,1.839601 -5.08524469,2.919758 -0.31117061,0.08591 -0.1609068,1.094909 0.15697329,1.094909 l 4.9151728,0 0.1392296,0.292639 0.4495031,2.222565 13.2698684,-2.9e-5 v 3.95 h 7.5 v -3.95 l 8.989442,2.9e-5 2.670575,-2.062912 z"
     sodipodi:nodetypes="ccsccssccccccccsssssscccccccscscscscssssccccccccsssccccscscsssccsscssscsccccccccccccssccccccccccsccscccccssscssccsccccccscccsscccccccccc" /></svg>
